{
	"ImportPath": "gitlab.com/esantoro/dueperuno",
	"GoVersion": "go1.6",
	"Deps": [
		{
			"ImportPath": "github.com/mattn/go-sqlite3",
			"Comment": "v1.1.0-51-g37aa7c6",
			"Rev": "37aa7c6f5bc95b7264de70cd1f0ca1d39228ebd6"
		}
	]
}
